index,Unnamed: 0,id,create_time,update_time,is_delete,title,addr_street,addr_city,people,start_date,end_date,reserved_date,price,acco_score,reviews_number,beds,bedrooms,bathrooms,latitude,longtitude,description,air_conditioner,tv,wifi,kitchen,shampoo,self_check_in,hair_dryer,freezer,accommodates,reviews_per_month,availability_365,minimum_nights,maximum_nights,calculated_host_listings_count,pic_url,pic1,pic2,pic3,pic4,pic5,pic6,host_user_id,cluster
2019,2019,2020,1/7/2019 00:00:00,2/7/2019 00:00:00,0,Beachfront Campbell Pde Bondi 2br apartment,,Bondi Beach,1,1/7/2019,31/12/2020,,251,93,39,2,2,1,-33.8903045,151.28029919999997,,0,1,1,1,1,0,1,0,4,3.7,130,3,30,1,https://a0.muscache.com/im/pictures/7ab21980-df70-4ff2-9d9e-c7cca11a4cf1.jpg?aki_policy=large,,,,,,,2,4
1903,1903,1904,1/7/2019 00:00:00,2/7/2019 00:00:00,0,Bondi Beach Apartment- Steps from Sand and Surf,,Bondi Beach,2,1/7/2019,31/12/2020,,239,91,72,3,2,1,-33.8862408,151.2768143,,0,1,1,1,1,0,1,0,5,5.7,101,2,40,1,https://a0.muscache.com/im/pictures/b02e1344-091d-4542-bfe1-672a4629211d.jpg?aki_policy=large,,,,,,,2,4
1992,1992,1993,1/7/2019 00:00:00,2/7/2019 00:00:00,0,BEACH LUXE Boutique Apartment (Beachside living),,Bondi Beach,2,1/7/2019,31/12/2020,,280,99,38,1,1,1,-33.8934315,151.2724532,,0,1,1,1,1,1,1,1,2,3.34,96,2,35,1,https://a0.muscache.com/im/pictures/d2575c7f-0f13-4779-be2f-b258b5ed59cf.jpg?aki_policy=large,,,,,,,2,4
1821,1821,1822,1/7/2019 00:00:00,2/7/2019 00:00:00,0,"Majestic panoramic beach views, stylish apartment",,Bondi Beach,2,1/7/2019,31/12/2020,,190,97,62,2,1,1,-33.891442700000006,151.27397280000002,,0,1,1,1,1,1,1,0,4,3.29,119,3,21,1,https://a0.muscache.com/im/pictures/a4c8e2f0-340b-45bf-b24c-d819ed5da895.jpg?aki_policy=large,,,,,,,2,4
1859,1859,1860,1/7/2019 00:00:00,2/7/2019 00:00:00,0,SUNNY ART-DECO BEACH LIVING IN THE HEART OF BONDI,,Bondi Beach,2,1/7/2019,31/12/2020,,199,99,17,2,2,1,-33.8886582,151.2743713,,0,1,1,1,1,1,1,0,4,1.13,115,2,60,1,https://a0.muscache.com/im/pictures/d0297b19-3cf1-4761-bbf7-d41a2e85dc2a.jpg?aki_policy=large,,,,,,,2,4
1646,1646,1647,1/7/2019 00:00:00,2/7/2019 00:00:00,0,Spacious Bondi Beach Retreat,,Bondi Beach,1,1/7/2019,31/12/2020,,195,99,36,1,1,1,-33.886821999999995,151.27884430000003,,0,1,1,1,1,1,1,1,4,1.28,59,3,14,1,https://a0.muscache.com/im/pictures/e268b132-7989-4292-96b3-07fca8ca69ae.jpg?aki_policy=large,,,,,,,2,4
2074,2074,2075,1/7/2019 00:00:00,2/7/2019 00:00:00,0,"Charming, sunny apartment, 200m from Bondi Beach",,Bondi Beach,4,1/7/2019,31/12/2020,,235,98,24,4,2,1,-33.8890408,151.2783889,,0,1,1,1,1,1,1,0,8,3.14,161,2,90,1,https://a0.muscache.com/im/pictures/d0f00b75-6967-4caf-9705-b166190cdb65.jpg?aki_policy=large,,,,,,,2,4
1668,1668,1669,1/7/2019 00:00:00,2/7/2019 00:00:00,0,Vintage Charm! Elegant Spacious Home 700m to Beach,,Bondi Beach,1,1/7/2019,31/12/2020,,150,98,37,1,1,1,-33.8889432,151.2677634,,1,1,1,1,1,1,1,1,2,1.31,109,1,30,3,https://z1.muscache.cn/im/pictures/1315ab9d-c421-47bb-8aff-342cece6c5ea.jpg?aki_policy=large,,,,,,,2,4
1916,1916,1917,1/7/2019 00:00:00,2/7/2019 00:00:00,0,????  SUMMER BEACH STUDIO IN THE ?? OF BONDI BEACH,,Bondi Beach,2,1/7/2019,31/12/2020,,192,100,33,1,1,1,-33.8881386,151.2721072,,1,1,1,1,1,1,1,1,4,2.57,155,1,90,3,https://a0.muscache.com/im/pictures/aa2a5242-9501-4c7e-9559-30ea38c335f6.jpg?aki_policy=large,,,,,,,2,4
1696,1696,1697,1/7/2019 00:00:00,2/7/2019 00:00:00,0,Bondi Beach quiet renovated 1 bed apt,,Bondi Beach,2,1/7/2019,31/12/2020,,150,96,45,2,1,1,-33.88552620000001,151.2757095,,1,1,1,1,1,0,1,1,4,1.8,138,2,70,1,https://a0.muscache.com/im/pictures/e227afae-a012-44cc-984b-4b8c972da61c.jpg?aki_policy=large,,,,,,,2,4
1733,1733,1734,1/7/2019 00:00:00,2/7/2019 00:00:00,0,BONDI BEACHFRONT AT BONDI BELLE!,,Bondi Beach,1,1/7/2019,31/12/2020,,199,97,74,3,2,1,-33.889933,151.280008,,1,1,1,1,1,1,1,1,4,3.06,36,3,31,1,https://a0.muscache.com/im/pictures/03a3151d-0749-4828-9fae-89eb64ab3eb4.jpg?aki_policy=large,,,,,,,2,4
1276,1276,1277,1/7/2019 00:00:00,2/7/2019 00:00:00,0,The Chee Bondi-Beach studio 08,,Bondi Beach,2,1/7/2019,31/12/2020,,190,98,37,1,0,1,-33.8895162,151.2735355,,1,1,1,1,1,0,1,0,2,0.62,120,1,42,7,https://a0.muscache.com/im/pictures/61131571/12d18f75_original.jpg?aki_policy=large,,,,,,,2,4
1230,1230,1231,1/7/2019 00:00:00,2/7/2019 00:00:00,0,The Chee Bondi - Beach Studio 06,,Bondi Beach,2,1/7/2019,31/12/2020,,186,97,54,1,0,1,-33.8898995,151.27207990000005,,1,1,1,1,1,0,1,0,2,0.72,104,1,42,7,https://a0.muscache.com/im/pictures/19d06705-2ee9-41a8-b61d-191232b21ded.jpg?aki_policy=large,,,,,,,2,4
1307,1307,1308,1/7/2019 00:00:00,2/7/2019 00:00:00,0,Garden Bungalow Close to the Beach,,Bondi Beach,1,1/7/2019,31/12/2020,,130,100,20,1,1,1,-33.891425500000004,151.2679767,,0,1,1,1,0,0,0,1,2,0.6,136,2,30,1,https://a0.muscache.com/im/pictures/96779541-250f-4ea7-b967-2a9209ca403a.jpg?aki_policy=large,,,,,,,2,4
2089,2089,2090,1/7/2019 00:00:00,2/7/2019 00:00:00,0,NEW 2bd 5 min walk to beach through heart of Bondi,,Bondi Beach,4,1/7/2019,31/12/2020,,165,97,33,4,2,1,-33.8882199,151.2696015,,1,1,1,1,1,1,1,0,5,6.83,61,2,30,1,https://a0.muscache.com/im/pictures/6ef0478c-d239-4431-87dc-5fbb3bb1f93f.jpg?aki_policy=large,,,,,,,2,4
1787,1787,1788,1/7/2019 00:00:00,2/7/2019 00:00:00,0,Roscoe St,,Bondi Beach,2,1/7/2019,31/12/2020,,199,97,33,2,2,2,-33.8875945,151.26805249999995,,0,1,1,1,1,1,1,1,4,1.53,18,2,60,1,https://a0.muscache.com/im/pictures/a7d76a3e-9578-47db-9774-09d31eec11ca.jpg?aki_policy=large,,,,,,,2,4
1956,1956,1957,1/7/2019 00:00:00,2/7/2019 00:00:00,0,Modern Studio Apartment - Real Bondi Living,,Bondi Beach,2,1/7/2019,31/12/2020,,130,90,44,1,0,1,-33.891126,151.2734554,,0,1,1,1,1,1,0,0,2,3.86,110,1,5,1,https://a0.muscache.com/im/pictures/9c97c8e0-96ea-4ee3-95b1-ded97cbe6449.jpg?aki_policy=large,,,,,,,2,4
1928,1928,1929,1/7/2019 00:00:00,2/7/2019 00:00:00,0,RIGHT ON BONDI H340,,Bondi Beach,2,1/7/2019,31/12/2020,,150,88,33,2,1,1,-33.894386600000004,151.274158,,0,1,1,1,1,0,0,0,4,2.63,77,3,28,58,https://a0.muscache.com/im/pictures/61afa7d9-6909-4754-80a7-4dbaac16a876.jpg?aki_policy=large,,,,,,,2,4
1858,1858,1859,1/7/2019 00:00:00,2/7/2019 00:00:00,0,Double Room in the heart of beautiful Bondi,,Bondi Beach,1,1/7/2019,31/12/2020,,136,97,23,1,1,1,-33.8876429,151.26694730000003,,0,0,1,1,0,0,1,0,2,1.7,63,1,14,1,https://a0.muscache.com/im/pictures/5b8010cd-1872-4340-80d9-2f3390a4fb1b.jpg?aki_policy=large,,,,,,,2,4
1918,1918,1919,1/7/2019 00:00:00,2/7/2019 00:00:00,0,Bondi Beach at your doorstep! Renovated 2b/2b,,Bondi Beach,1,1/7/2019,31/12/2020,,125,95,34,2,2,2,-33.8964638,151.2706834,,0,1,1,1,1,1,1,1,4,2.56,81,2,30,1,https://a0.muscache.com/im/pictures/9af79edf-1dde-41d6-bccf-cf4939086d45.jpg?aki_policy=large,,,,,,,2,4
1684,1684,1685,1/7/2019 00:00:00,2/7/2019 00:00:00,0,Fantastic Bondi Studio: Buzzy Hall Street,,Bondi Beach,1,1/7/2019,31/12/2020,,125,93,81,1,1,1,-33.888976,151.2720407,,0,1,1,1,1,0,1,0,2,3.07,66,1,21,1,https://a0.muscache.com/im/pictures/0aa997a2-6c31-435e-b9a1-a83cece4444a.jpg?aki_policy=large,,,,,,,2,4
1353,1353,1354,1/7/2019 00:00:00,2/7/2019 00:00:00,0,Your Own Cozy Beach Pad!,,Bondi Beach,3,1/7/2019,31/12/2020,,129,92,53,1,1,1,-33.8949179,151.27204550000005,,0,0,1,1,0,0,1,1,3,1.11,21,2,15,1,https://a0.muscache.com/im/pictures/64c32b6e-dc0c-4bda-8b26-38b9e5071d2b.jpg?aki_policy=large,,,,,,,2,4
1714,1714,1715,1/7/2019 00:00:00,2/7/2019 00:00:00,0,Stroll to Bondi Beach from This Unique Loft,,Bondi Beach,1,1/7/2019,31/12/2020,,180,98,100,1,1,1,-33.8893509,151.2744361,,1,1,1,1,1,1,1,0,2,3.96,29,2,30,1,"https://a0.muscache.com/4ea/air/v2//pictures/addfc34e-ed21-4036-9f64-60e555ab46e2.jpg?t=r:w1200-h720-sfit,e:fjpg-c85",,,,,,,2,4
1235,1235,1236,1/7/2019 00:00:00,2/7/2019 00:00:00,0,The Chee Bondi- Beach Studio 03,,Bondi Beach,2,1/7/2019,31/12/2020,,190,96,51,0,0,1,-33.889992799999995,151.2720851,,1,1,1,1,1,0,1,0,2,0.7,133,1,42,7,https://a0.muscache.com/im/pictures/86251973/341895ab_original.jpg?aki_policy=large,,,,,,,2,4
1655,1655,1656,1/7/2019 00:00:00,2/7/2019 00:00:00,0,Bondi Retreat-Suite Exquisite Heavenly Haven for 2,,Bondi Beach,1,1/7/2019,31/12/2020,,96,99,29,1,1,1,-33.8808169,151.2790086,,1,1,1,1,1,0,1,1,2,1.23,101,3,45,2,https://a0.muscache.com/im/pictures/4236d2cd-9f63-43dc-8301-62d4a6734444.jpg?aki_policy=large,,,,,,,2,4
1640,1640,1641,1/7/2019 00:00:00,2/7/2019 00:00:00,0,Light and Airy Rooftop Apartment in Bondi,,Bondi Beach,1,1/7/2019,31/12/2020,,165,92,74,2,2,2,-33.8901008,151.2707879,,1,1,1,1,1,1,1,0,4,2.47,34,2,90,1,https://a0.muscache.com/im/pictures/bfc8857e-42e0-4edc-bbfd-e324dfe552dc.jpg?aki_policy=large,,,,,,,2,4
1651,1651,1652,1/7/2019 00:00:00,2/7/2019 00:00:00,0,"Bondi Views - Stunning Reviews, Secluded Hideaway",,Bondi Beach,1,1/7/2019,31/12/2020,,115,98,105,1,1,1,-33.8807005,151.2795639,,1,1,1,1,1,1,1,1,2,3.56,101,3,45,2,https://a0.muscache.com/im/pictures/6f32990b-f586-422e-ba4e-9ad389c58e3a.jpg?aki_policy=large,,,,,,,2,4
1998,1998,1999,1/7/2019 00:00:00,2/7/2019 00:00:00,0,Bondi Beach Perfect Location! Private Room,,Bondi Beach,1,1/7/2019,31/12/2020,,109,98,17,1,1,1,-33.887513899999995,151.2762132,,0,1,1,1,1,0,1,0,2,1.43,109,1,60,3,https://a0.muscache.com/im/pictures/5a835eec-3a73-46cd-9c0f-f49845daca49.jpg?aki_policy=large,,,,,,,2,4
1661,1661,1662,1/7/2019 00:00:00,2/7/2019 00:00:00,0,Perfect Bondi Beach Apartment,,Bondi Beach,1,1/7/2019,31/12/2020,,300,97,77,3,3,2,-33.8878125,151.2766611,,0,1,1,1,1,1,1,0,6,2.71,42,4,20,1,https://a0.muscache.com/im/pictures/f0203cc0-d2bd-4e4e-9037-0ec02255e16f.jpg?aki_policy=large,,,,,,,2,4
1374,1374,1375,1/7/2019 00:00:00,2/7/2019 00:00:00,0,Authentic Beach Pad in Bondi Beach!,,Bondi Beach,3,1/7/2019,31/12/2020,,179,94,32,2,2,1,-33.8932461,151.2725824,,0,1,1,1,1,0,1,0,4,0.66,96,3,120,1,https://a0.muscache.com/im/pictures/ac6c7b00-f012-4a95-8d75-a5f67dddf160.jpg?aki_policy=large,,,,,,,2,4
1666,1666,1667,1/7/2019 00:00:00,2/7/2019 00:00:00,0,Cosy beach house in the heart of North Bondi,,Bondi Beach,1,1/7/2019,31/12/2020,,105,98,34,1,1,1,-33.8883441,151.2783541,,0,1,1,1,1,0,1,1,2,1.24,39,2,50,1,https://a0.muscache.com/im/pictures/3a74a8b2-f003-4831-acae-b1c6e6dcb795.jpg?aki_policy=large,,,,,,,2,4
1810,1810,1811,1/7/2019 00:00:00,2/7/2019 00:00:00,0,Bright Bondi Beach Holiday Rental,,Bondi Beach,1,1/7/2019,31/12/2020,,154,94,102,2,1,1,-33.8939822,151.27279860000004,,0,1,1,1,1,1,1,1,3,5.2,31,1,90,1,https://a0.muscache.com/im/pictures/5278f863-dacd-453f-ae47-f6d78f326536.jpg?aki_policy=large,,,,,,,2,4
1313,1313,1314,1/7/2019 00:00:00,2/7/2019 00:00:00,0,"bondi beach bespoke, an art deco apartment",,Bondi Beach,1,1/7/2019,31/12/2020,,159,95,103,0,1,1,-33.8891053,151.279675,,0,1,1,1,1,1,1,1,2,2.03,16,1,21,2,https://a0.muscache.com/im/pictures/38732261/66fe7177_original.jpg?aki_policy=large,,,,,,,2,4
1323,1323,1324,1/7/2019 00:00:00,2/7/2019 00:00:00,0,Bondi  Sunny Room overlooking Private Garden,,Bondi Beach,1,1/7/2019,31/12/2020,,66,96,42,1,1,1,-33.88762,151.2716254,,0,0,1,1,0,0,0,1,2,0.84,124,1,42,1,https://a0.muscache.com/im/pictures/47093959/f25ea1bd_original.jpg?aki_policy=large,,,,,,,2,4
1559,1559,1560,1/7/2019 00:00:00,2/7/2019 00:00:00,0,Private loft & bathroom in Beautiful Bondi Beach ?,,Bondi Beach,1,1/7/2019,31/12/2020,,109,99,61,1,1,1,-33.887355799999995,151.2773779,,0,0,1,0,1,0,1,1,2,5.9,38,2,100,1,https://a0.muscache.com/im/pictures/210b8b37-e44f-4303-a083-b633c8b656a5.jpg?aki_policy=large,,,,,,,2,4
1318,1318,1319,1/7/2019 00:00:00,2/7/2019 00:00:00,0,Cozy apt - 1 min walk to the Beach,,Bondi Beach,1,1/7/2019,31/12/2020,,80,87,48,1,1,1,-33.8880232,151.2729467,,0,1,1,1,1,0,0,0,2,0.9,146,4,60,1,https://a0.muscache.com/im/pictures/71341792/085924ee_original.jpg?aki_policy=large,,,,,,,2,4
1745,1745,1746,1/7/2019 00:00:00,2/7/2019 00:00:00,0,Bright & Cozy Studio in Bondi Beach,,Bondi Beach,3,1/7/2019,31/12/2020,,115,85,76,1,0,1,-33.88659929999999,151.2666057,,0,0,1,1,1,0,1,0,2,3.18,0,2,30,2,https://a0.muscache.com/im/pictures/f53e0263-f5c4-401b-a5d7-825c713cafe5.jpg?aki_policy=large,,,,,,,2,4
1214,1214,1215,1/7/2019 00:00:00,2/7/2019 00:00:00,0,Apartment in North Bondi Village,,Bondi Beach,2,1/7/2019,31/12/2020,,161,90,63,3,2,1,-33.889228100000004,151.28399919999995,,0,1,1,1,1,1,1,1,4,0.68,13,2,90,1,https://a0.muscache.com/im/pictures/8cac44f7-ed26-498f-8dec-6dd9a4e1a71c.jpg?aki_policy=large,,,,,,,2,4
1740,1740,1741,1/7/2019 00:00:00,2/7/2019 00:00:00,0,Spacious Bedroom in Stylish Beach Apartment,,Bondi Beach,1,1/7/2019,31/12/2020,,96,99,96,1,1,1,-33.8934402,151.2713804,,0,1,1,1,1,1,1,0,1,3.98,25,1,3,2,https://a0.muscache.com/im/pictures/a4dab182-489a-483d-a5bd-2d2f1e115519.jpg?aki_policy=large,,,,,,,2,4
1781,1781,1782,1/7/2019 00:00:00,2/7/2019 00:00:00,0,Stunning master double bedroom Bondi Beach,,Bondi Beach,2,1/7/2019,31/12/2020,,71,94,55,1,1,1,-33.88644910000001,151.27678659999995,,0,1,1,1,1,0,1,1,2,2.45,45,2,15,1,https://a0.muscache.com/im/pictures/d73aae96-5d83-4669-92eb-17e15366870e.jpg?aki_policy=large,,,,,,,2,4
1320,1320,1321,1/7/2019 00:00:00,2/7/2019 00:00:00,0,Five minute stroll to sea and sand,,Bondi Beach,1,1/7/2019,31/12/2020,,96,98,97,1,1,1,-33.88818320000001,151.2816186,,0,1,1,1,1,0,1,0,2,1.91,155,1,14,2,https://a0.muscache.com/im/pictures/44011686/989bc5f1_original.jpg?aki_policy=large,,,,,,,2,4
2088,2088,2089,1/7/2019 00:00:00,2/7/2019 00:00:00,0,Bondi Beach Cozy Studio 2 mins to everything,,Bondi Beach,2,1/7/2019,31/12/2020,,84,90,74,2,0,1,-33.8888894,151.27111619999997,,1,1,1,1,1,0,1,1,2,9.37,43,1,28,1,https://a0.muscache.com/im/pictures/c5232195-ee16-4924-ae30-a89f997a2d5b.jpg?aki_policy=large,,,,,,,2,4
1212,1212,1213,1/7/2019 00:00:00,2/7/2019 00:00:00,0,"2br Eclectic Stylish Home, 2 mins to Bondi Beach",,Bondi Beach,4,1/7/2019,31/12/2020,,245,86,23,2,2,1,-33.8889037,151.2772574,,0,0,1,1,1,1,1,1,4,0.25,124,4,90,1,https://a0.muscache.com/im/pictures/377464/aa069259_original.jpg?aki_policy=large,,,,,,,2,4
1211,1211,1212,1/7/2019 00:00:00,2/7/2019 00:00:00,0,BONDI BEACHFRONT CENTRAL LOCATION,,Bondi Beach,2,1/7/2019,31/12/2020,,130,95,121,1,1,1,-33.8918461,151.27308430000005,,0,0,1,1,1,0,1,0,2,1.25,54,4,90,1,https://a0.muscache.com/im/pictures/7cd2e60f-47eb-475d-9a13-9865a343f525.jpg?aki_policy=large,,,,,,,2,4
1274,1274,1275,1/7/2019 00:00:00,2/7/2019 00:00:00,0,Bondi Designer Studio Apartment P,,Bondi Beach,2,1/7/2019,31/12/2020,,120,91,114,2,0,1,-33.890262400000005,151.27341830000003,,1,1,1,1,1,1,1,0,3,1.88,42,3,120,7,https://a0.muscache.com/im/pictures/28528969/461a9653_original.jpg?aki_policy=large,,,,,,,2,4
1227,1227,1228,1/7/2019 00:00:00,2/7/2019 00:00:00,0,"Nice and Cosy, Great Location BONDI",,Bondi Beach,1,1/7/2019,31/12/2020,,48,94,115,1,1,1,-33.8939207,151.2719679,,0,0,1,1,0,0,1,1,1,1.48,56,3,100,1,https://a0.muscache.com/im/pictures/aad9b0b9-5df0-4b02-94d6-3ce6785679d3.jpg?aki_policy=large,,,,,,,2,4
1553,1553,1554,1/7/2019 00:00:00,2/7/2019 00:00:00,0,Serenity Bondi Beach Private Room,,Bondi Beach,2,1/7/2019,31/12/2020,,71,98,37,1,1,1,-33.8901568,151.27201169999995,,0,1,1,1,1,0,1,0,2,1.32,34,3,200,4,https://a0.muscache.com/im/pictures/76636fd5-5d3b-4d1a-9dfd-9a2d7591822f.jpg?aki_policy=large,,,,,,,2,4
1836,1836,1837,1/7/2019 00:00:00,2/7/2019 00:00:00,0,BEAUTIFUL BONDI H335,,Bondi Beach,2,1/7/2019,31/12/2020,,136,89,39,1,1,1,-33.8904925,151.2804725,,0,1,1,1,1,0,1,0,2,2.23,39,2,360,58,https://a0.muscache.com/im/pictures/883b85cf-8db8-492e-a99f-06cac58739df.jpg?aki_policy=large,,,,,,,2,4
1401,1401,1402,1/7/2019 00:00:00,2/7/2019 00:00:00,0,New interiors / 2 blocks to beach,,Bondi Beach,4,1/7/2019,31/12/2020,,188,94,103,3,2,1,-33.8872702,151.2730312,,0,1,1,1,1,1,1,1,5,2.87,3,3,365,2,https://a0.muscache.com/im/pictures/1e09b66b-ced6-4680-8ace-6679755d6e4a.jpg?aki_policy=large,,,,,,,2,4
1240,1240,1241,1/7/2019 00:00:00,2/7/2019 00:00:00,0,Simple Bondi Beachfront 1BR,,Bondi Beach,2,1/7/2019,31/12/2020,,198,91,99,2,1,1,-33.8898026,151.28142,,0,1,1,1,1,1,1,1,3,1.37,27,2,365,1,https://a0.muscache.com/im/pictures/d7803230-468e-414a-8846-b12f277e29c1.jpg?aki_policy=large,,,,,,,2,4
1312,1312,1313,1/7/2019 00:00:00,2/7/2019 00:00:00,0,Bright Beachfront 2BR Apartment!,,Bondi Beach,1,1/7/2019,31/12/2020,,599,96,112,2,2,1,-33.8888212,151.27712590000004,,0,1,1,1,1,1,1,0,4,2.11,30,3,90,2,https://a0.muscache.com/im/pictures/41080539/8d2398a5_original.jpg?aki_policy=large,,,,,,,2,4
1526,1526,1527,1/7/2019 00:00:00,2/7/2019 00:00:00,0,Steps to Beach from Luxe House,,Bondi Beach,4,1/7/2019,31/12/2020,,800,99,33,3,3,3,-33.8933653,151.2710491,,0,1,1,1,1,1,1,0,6,0.97,58,2,60,1,"https://a0.muscache.com/4ea/air/v2//pictures/f1d30fd0-9232-4861-8312-3cb08a5b4431.jpg?t=r:w1200-h720-sfit,e:fjpg-c85",,,,,,,2,4
